[
  { 
    "id": "total_raw_reads",
    "name": "Number of raw reads [mln]",
    "description": "The total number of reads.",
    "warning": "computed_value < 40",
    "error": "computed_value < 20",
    "query": "sum(CollectAlignmentSummaryMetrics_TOTAL_READS/1000000)",
    "metric_class": "reads"
  },
  { 
    "id": "total_effective_reads",
    "name": "Total effective reads [mln]",
    "description": "The number of filtered reads that were aligned to the reference sequence. This includes reads that aligned with low quality (i.e. their alignments are ambiguous).",
    "query": "sum(CollectAlignmentSummaryMetrics_PF_READS_ALIGNED/1000000)",
    "metric_class": "reads"
  },
  {  
    "id" : "total_effecitve_reads_pct",
    "name": "Total effective reads [%]",
    "description": "The percentage of filtered reads that are aligned to the reference sequence. Total effective reads/total filtered  reads.",
    "metric_class": "reads",
    "query": "sum(CollectAlignmentSummaryMetrics_PF_READS_ALIGNED*100)/sum(CollectAlignmentSummaryMetrics_TOTAL_READS)"
  },
  { "id": "duplication_rate",
    "name": "Duplication rate in mapped sequence [%]",
    "description": "The fraction of mapped sequence that is marked as duplicate.",
    "metric_class": "reads",
    "query" : "sum(MarkDuplicates_READ_PAIR_DUPLICATES)/sum(MarkDuplicates_READ_PAIRS_EXAMINED)"
  },
  {
    "id": "chimeras_pct",
    "name": "Percantage of chimeras [%]",
    "description": "Percentage of reads that map outside of a maximum insert size or that have the two ends mapping to different chromosome.",
    "warning": "computed_value > 5",
    "error": "computed_value > 10",
    "expected": "<5 %",
    "metric_class": "reads",
    "query" : "sum(CollectAlignmentSummaryMetrics_PCT_CHIMERAS*CollectAlignmentSummaryMetrics_PF_READS_ALIGNED)*100/sum(CollectAlignmentSummaryMetrics_PF_READS_ALIGNED)"
  },
  { 
    "id": "total_raw_bases",
    "name": "Number of raw bases [Gb]",
    "description": "The total number of bases in all reads.",
    "query": "sum(CollectQualityYieldMetrics_TOTAL_BASES/1000000000)",
    "metric_class": "bases"
  },
  { 
    "id": "total_effective_bases",
    "name": "Effective bases in reference genome [Gb]",
    "description": "The total number of aligned, filtered bases, in all mapped filtered reads, that are aligned to the reference sequence.",
    "metric_class": "bases",
    "query" : "sum(CollectAlignmentSummaryMetrics_PF_ALIGNED_BASES)/1000000000"
  },
  { 
    "id": "total_effective_bases_pct",
    "name": "Effective bases in reference genome [%]",
    "description": "The total number of aligned bases, in all mapped filtered reads, that are aligned to the reference sequence divided by total number of bases in all reads.",
    "metric_class": "bases",
    "query" : "sum(CollectAlignmentSummaryMetrics_PF_ALIGNED_BASES)/sum(CollectQualityYieldMetrics_TOTAL_BASES)*100"
  },
  {
    "id": "genome_territory", 
    "name": "Genome territory [Gb]",
    "description": "The total number of sequenced bases.",
    "query": "avg(CollectWgsMetrics_GENOME_TERRITORY/1000000000)",
    "metric_class": "bases"
  },
  { 
    "id": "mismatch_rate",
    "name": "Mismatch rate",
    "description": "The rate of bases mismatching the reference for all bases aligned to the reference sequence.",
    "query": "sum(CollectAlignmentSummaryMetrics_PF_MISMATCH_RATE*CollectAlignmentSummaryMetrics_PF_ALIGNED_BASES)/sum(CollectAlignmentSummaryMetrics_PF_ALIGNED_BASES)",
    "metric_class": "bases"
  },
  { 
    "id": "mean_sequencing_depth",
    "name": "Mean sequencing depth on target",
    "description": "The mean coverage in bases of the genome territory, after all filters are applied.",
    "metric_class": "coverage",
    "query" : "sum(CollectWgsMetrics_MEAN_COVERAGE*CollectWgsMetrics_GENOME_TERRITORY)/avg(CollectWgsMetrics_GENOME_TERRITORY)"
  },
  { 
    "id": "bases_cov_1x",
    "name": "The fraction of bases  with coverage > 1X",
    "description": "The fraction of bases (alligned) that attained at least 1X sequence coverage in post-filtering bases.",
    "metric_class": "coverage",
    "query" : "sum(CollectWgsMetrics_PCT_1X)"
  },
  { "id": "bases_cov_5x",
    "name": "The fraction of bases  with coverage > 5X",
    "description": "The fraction of bases (alligned) that attained at least 5X sequence coverage in post-filtering bases.",
    "metric_class": "coverage",
    "query" : "sum(CollectWgsMetrics_PCT_5X)"
  },
  { "id": "bases_cov_20x",
    "name": "The fraction of bases  with coverage > 20X",
    "description": "The fraction of bases (alligned) that attained at least 20X sequence coverage in post-filtering bases.",
    "metric_class": "coverage",
    "query" : "sum(CollectWgsMetrics_PCT_20X)"
  }
]
