{
  "author": "https://gitlab.com/mateuszmarynowski",
  "copyright": "Copyright 2019-2020 Intelliseq",
  "description": "Create prs health report.",
  "changes": {
    "1.1.7": "update report",
    "1.1.6": "changes for the mobile version",
    "1.1.5": "add analysisEnvironment (IntelliseqFlow, T-Systems) input to report",
    "1.1.4": "template update",
    "1.1.3": "template update",
    "1.1.2": "content update",
    "1.1.1": "sample_info_json is now optional; sample_id added to output filename",
    "1.1.0": "update template; added Prepare sample-info.json script; merge models script added",
    "1.0.0": "No changes"
  },
  "input_model": {
    "name": "Model",
    "description": "Json file with health models",
    "type": "File"
  },
  "input_sample_info_json": {
    "name": "sample_info_json",
    "type": "File",
    "description": "Patient data in json format"
  },
  "output_result_health_html": {
    "name": "Result health html",
    "description": "Health report in html format with provided health models",
    "type": "File"
  },
  "output_stdout_log": {
    "name": "Stdout log",
    "description": "Console stdout",
    "type": "File"
  },
  "output_stderr_log": {
    "name": "Stderr log",
    "description": "Console stderr",
    "type": "File"
  },
  "output_bco": {
    "name": "Bco",
    "description": "Biocompute object",
    "type": "File"
  }
}