{
  "latest": "http://ensembl.org",
  "107": "http://jul2022.archive.ensembl.org",
  "106": "http://apr2022.archive.ensembl.org",
  "105": "http://dec2021.archive.ensembl.org",
  "104": "http://may2021.archive.ensembl.org/",
  "103": "http://feb2021.archive.ensembl.org/",
  "102": "http://nov2020.archive.ensembl.org/",
  "101": "http://aug2020.archive.ensembl.org/",
  "100": "http://apr2020.archive.ensembl.org/",
  "99": "http://jan2020.archive.ensembl.org/",
  "98": "http://sep2019.archive.ensembl.org/"
}