{
  "author": "https://gitlab.com/wojciech-galan",
  "copyright": "Copyright 2019-2020 Intelliseq",
  "description": "Analyzes imputing accuracy",
  "changes": {"0.0.2": "Only genotypes with DP above 9 are considered", "0.0.1": "First version"},
  "input_imputed_vcf": {
    "name": "Imputed vcf",
    "description": "Imputed VCF file",
    "type": "File",
    "index": 1,
    "extension": [
      ".vcf.gz",
      ".vcf"
    ]
  },
  "input_initial_vcf": {
    "name": "Initial vcf",
    "description": "Initial VCF file",
    "type": "File",
    "index": 2,
    "extension": [
      ".vcf.gz",
      ".vcf"
    ]
  },
  "output_stdout_log": {
    "name": "Stdout log",
    "description": "Stdout log",
    "type": "File"
  },
  "output_stderr_log": {
    "name": "Stderr log",
    "description": "Stderr log",
    "type": "File"
  },
  "output_bco": {
    "name": "Bco",
    "description": "BioCompute Object json",
    "type": "File"
  },
  "output_quality_info": {
    "name": "Quality info",
    "description": "Json file with imputing quality data",
    "type": "File"
  }
}
