{
 "ClusterDensity": {"warning":"100","error":"80","operator":"less","name":"bcl_run-completion-status_cluster-density"},
 "ClustersPassingFilter": {"warning":"80","error":"70","operator":"less","name":"bcl_run-completion-status_clusters-passing-filter"},
 "Bowtie 2 / HiSAT2_mqc-generalstats-bowtie_2_hisat2-overall_alignment_rate": {"warning":"80","error":"75","operator":"less","name":"bowtie_2_hisat2-overall_alignment_rate"},
 "Bowtie 1_mqc-generalstats-bowtie_1-reads_aligned_percentage": {"warning":"80","error":"75","operator":"less","name":"bowtie_1-overall_alignment_rate"},
 "FastQC_mqc-generalstats-fastqc-percent_duplicates": {"warning":"10","error":"20","operator":"more","name":"fastqc-percent_duplicates", "image": "duplication_levels.png"},
  "FastQC_mqc-generalstats-fastqc-total_sequences": {"warning":"10000000","error":"8000000","operator":"less","name":"fastqc-total_sequences"},
  "FastQC_mqc-generalstats-fastqc-avg_sequence_length": {"warning":"20", "error":"10","operator":"less","name":"fastqc-avg_sequence_length"},
  "FastQC_additional-minimum_mean_quality_score": {"warning":"29","error":"27","operator":"less","name":"fastqc_additional-minimum_mean_quality_score"},
  "FastQC_additional-percent_reads_with_quality_over_30": {"warning":"80","error":"75","operator":"less","name":"fastqc_additional-percent_reads_with_quality_over_30"},
 "FastQC_additional-lower_20_percent_GC_bucket": {"warning":"0.9","error":"1.3","operator":"more","name":"fastqc_additional-lower_20_percent_GC_bucket"},
  "FastQC_additional-upper_20_percent_GC_bucket": {"warning":"1.6","error":"2.0","operator":"more","name":"fastqc_additional-upper_20_percent_GC_bucket"},
 "per_base_sequence_quality": {"operator":"else","name":"fastqc-per_base_sequence_quality", "image": "per_base_quality.png"},
 "per_sequence_quality_scores": {"operator":"else","name":"fastqc-per_sequence_quality_scores", "image": "per_sequence_quality.png"},
 "overrepresented_sequences": {"operator":"else","name":"fastqc-overrepresented_sequences"},
 "adapter_content": {"operator":"else","name":"fastqc-avg_sequence_length", "image": "adapter_content.png"}
}