{
  "author": "https://gitlab.com/moni.krzyz",
  "changes": {"1.1.1": "gatk docker update"},
  "copyright": "Copyright 2019-2021 Intelliseq",
  "name": "Bcl to fq",
  "description": "Bcl to fq task",
  "input_raw_data_tar_gz": {
    "name": "Raw data",
    "type": "File",
    "description": "Raw tar.gz folder with bcl files",
    "extension": [
    ".tar.gz"
    ]
  }
}
