6022513 reads; of these:
  6022513 (100.00%) were unpaired; of these:
    64618 (1.07%) aligned 0 times
    4196448 (69.68%) aligned exactly 1 time
    1761447 (29.25%) aligned >1 times
98.93% overall alignment rate
