{
  "bed_to_interval_list_workflow.bed_to_interval_list.padding": "20000000",
  "bed_to_interval_list_workflow.bed_to_interval_list.reference_genome": "grch38-no-alt",
  "bed_to_interval_list_workflow.bed_to_interval_list.bed": "/data/public/intelliseqngs/workflows/resources/intervals/pgx/pharmcat_astrolabe/intervals_pgx.bed",
  "bed_to_interval_list_workflow.bed_to_interval_list.sample_id": "pgx-intervals-2mln-padded"
}
