<?xml version="1.0" encoding="utf-8"?>
<!-- Generator: Adobe Illustrator 25.0.1, SVG Export Plug-In . SVG Version: 6.00 Build 0)  -->
<svg version="1.1" id="Warstwa_1" xmlns="http://www.w3.org/2000/svg" xmlns:xlink="http://www.w3.org/1999/xlink" x="0px" y="0px"
	 width="322.9px" height="82.8px" viewBox="0 0 322.9 82.8" style="enable-background:new 0 0 322.9 82.8;" xml:space="preserve">
<style type="text/css">
	.st0{fill:#142339;}
	.st1{fill:#2273B8;}
</style>
<g>
	<path class="st0" d="M316.3,62.6l0.2-4.7c-2.1,2-4.9,3.5-7.8,3.5c-7.1,0-11.6-5.5-11.6-14.8c0-9.2,5.8-14.8,12-14.8
		c3.2,0,5.5,1.1,7.8,3.4h0.2l0.6-2.7h5.2v39.4h-6.6L316.3,62.6L316.3,62.6z M316.3,52.8V39.6c-2-1.7-3.9-2.4-5.7-2.4
		c-3.6,0-6.6,3.4-6.6,9.3c0,6.1,2.3,9.4,6.4,9.4C312.6,55.9,314.4,55,316.3,52.8z"/>
	<path class="st0" d="M101.9,23.1h6.7v37.6h-6.7V23.1z"/>
	<path class="st0" d="M117.6,32.5h5.5l0.5,3.8h0.2c2.5-2.5,5.4-4.5,9.3-4.5c6,0,8.7,4.1,8.7,11.2v17.7h-6.7V43.9
		c0-4.7-1.3-6.4-4.4-6.4c-2.5,0-4.1,1.2-6.4,3.5v19.7h-6.6V32.5H117.6z"/>
	<path class="st0" d="M150.8,51.2V37.7h-4v-4.9l4.4-0.3l0.8-7.7h5.5v7.7h7.2v5.2h-7.2v13.5c0,3.3,1.3,4.9,4,4.9c1,0,2.1-0.3,2.9-0.6
		l1.2,4.9c-1.6,0.5-3.5,1-5.8,1C153.2,61.4,150.8,57.3,150.8,51.2z"/>
	<path class="st0" d="M167.8,46.6c0-9.2,6.4-14.8,13-14.8c7.6,0,11.7,5.5,11.7,13.4c0,1.3-0.1,2.5-0.3,3.2h-17.9
		c0.6,5,3.8,7.9,8.3,7.9c2.4,0,4.5-0.7,6.6-2.1l2.2,4.1c-2.7,1.8-6.1,3-9.7,3C173.9,61.4,167.8,55.9,167.8,46.6z M186.7,43.9
		c0-4.4-1.9-7-5.7-7c-3.3,0-6.2,2.5-6.8,7H186.7z"/>
	<path class="st0" d="M198.8,53.5V20.1h6.6v33.7c0,1.6,0.7,2.2,1.4,2.2c0.3,0,0.5,0,1-0.1l0.9,4.9c-0.8,0.3-2,0.6-3.5,0.6
		C200.5,61.4,198.8,58.4,198.8,53.5z"/>
	<path class="st0" d="M214.3,53.5V20.1h6.6v33.7c0,1.6,0.7,2.2,1.4,2.2c0.3,0,0.5,0,1-0.1l0.9,4.9c-0.8,0.3-2,0.6-3.5,0.6
		C216.1,61.4,214.3,58.4,214.3,53.5z"/>
	<path class="st0" d="M229.2,23.8c0-2.2,1.7-3.8,4.1-3.8s4.1,1.6,4.1,3.8s-1.7,3.7-4.1,3.7S229.2,26,229.2,23.8z M229.9,32.5h6.6
		v28.2h-6.6V32.5z"/>
	<path class="st0" d="M242.2,57.5l3.1-4.3c2.5,2,4.9,3.2,7.8,3.2c3,0,4.5-1.4,4.5-3.4c0-2.4-3-3.4-6-4.5c-3.7-1.4-7.9-3.5-7.9-8.2
		c0-4.9,4-8.5,10.3-8.5c3.9,0,7.1,1.6,9.4,3.4l-3,4c-2-1.4-4-2.4-6.2-2.4c-2.8,0-4.1,1.3-4.1,3.1c0,2.2,2.8,3.1,5.9,4.2
		c3.9,1.4,8.1,3.3,8.1,8.6c0,4.8-3.9,8.7-11,8.7C249,61.4,244.9,59.7,242.2,57.5z"/>
	<path class="st0" d="M267.9,46.6c0-9.2,6.4-14.8,13-14.8c7.6,0,11.7,5.5,11.7,13.4c0,1.3-0.1,2.5-0.3,3.2h-17.9
		c0.6,5,3.8,7.9,8.3,7.9c2.4,0,4.5-0.7,6.6-2.1l2.2,4.1c-2.7,1.8-6.1,3-9.7,3C274,61.4,267.9,55.9,267.9,46.6z M286.8,43.9
		c0-4.4-1.9-7-5.8-7c-3.3,0-6.2,2.5-6.8,7H286.8z"/>
</g>
<path class="st1" d="M41.4,0C18.6,0,0,18.6,0,41.4c0,22.9,18.5,41.4,41.4,41.4c9.4,0,18-3.1,24.9-8.4l-5.5-5.5
	c-2.2,1.6-4.5,2.8-7,3.8V50.6l-8.6-8.5l8.6-8.7V10.2C66.2,15.1,75,27.2,75,41.4c0,7.5-2.4,14.4-6.6,20l5.5,5.5
	c5.5-7,8.9-15.9,8.9-25.6C82.8,18.6,64.3,0,41.4,0 M29.6,50.9v22c-12.7-4.8-21.8-17-21.8-31.4s9-26.7,21.8-31.4v23.4l8.6,8.7
	l-8.7,8.7H29.6L29.6,50.9z M48.9,74.3c-2.3,0.5-4.9,0.8-7.4,0.8c-2.4,0-4.7-0.3-6.9-0.7v-7.2H49L48.9,74.3z M48.9,65H34.5v-5h14.4
	C48.9,60,48.9,65,48.9,65z M48.9,52.6v5.3H34.5v-5.1l7.2-7.2L48.9,52.6z M48.9,31.4l-7.2,7.2l-7.2-7.2v-4.8h14.4
	C48.9,26.6,48.9,31.4,48.9,31.4z M48.9,24.5H34.5v-5.7h14.4C48.9,18.8,48.9,24.5,48.9,24.5z M48.9,16.7H34.5v-8
	C36.7,8.2,39.1,8,41.4,8c2.6,0,5,0.3,7.4,0.8L48.9,16.7L48.9,16.7z"/>
</svg>
