<?xml version="1.0" encoding="utf-8"?>
<!-- Generator: Adobe Illustrator 25.0.0, SVG Export Plug-In . SVG Version: 6.00 Build 0)  -->
<svg version="1.1" id="Layer_1" xmlns="http://www.w3.org/2000/svg" xmlns:xlink="http://www.w3.org/1999/xlink" x="0px" y="0px"
	 width="13px" height="14px" viewBox="0 0 13 14" style="enable-background:new 0 0 13 14;" xml:space="preserve">
<path d="M4.1,12.7L0.5,5.9c-1-2-0.3-4.4,1.7-5.4C2.7,0.2,3.3,0,4,0h3.7c2.2,0,4,1.8,4,4c0,0.7-0.2,1.3-0.5,1.9l-3.6,6.8
	c-0.5,1-1.7,1.3-2.7,0.8C4.6,13.3,4.3,13,4.1,12.7z"/>
</svg>
