{
   "author": "https://gitlab.com/moni.krzyz",
   "copyright": "Copyright 2019-2020 Intelliseq",
   "description": "Tool for liftover of regions written in .bed or .bed.gz files from GRCh37(hg19) to GRCh38(hg38) reference sequence.",
   "changes": {
      "1.0.7": "update meta to new parser",
      "1.0.6": "update meta outputs",
      "1.0.5": "required bed in meta",
      "1.0.4": "fix alt chromosomes",
      "1.0.3": "Fast fix for beds without chr",
      "1.0.2": "Add tag and price to meta",
      "1.0.1": "Meta_update",
      "1.0.0": "First version"
   },
   "variant1_name": "Liftover tool for .bed files [GRCh37(hg19) to GRCh38(hg38)]",
   "variant1_description": "Tool for liftover of regions written in .bed or .bed.gz files from GRCh37(hg19) to GRCh38(hg38) reference sequence.",
   "variant1_tag": "Utilities",
   "variant1_price": "30",
   "variant1_input_bed": {
      "name": "Bed",
      "description": "Select bed file with regions from Hg19 reference string, according specification: https://en.wikipedia.org/wiki/BED_(file_format). Can be in .bed or .bed.gz format.",
      "type": "File",
      "required": true,
      "index": 1,
      "constraints": {
         "extensions": [
            ".bed",
            ".bed.gz"
         ]
      }
   },
   "groupOutputs": {
      "logs": {
         "name": "Logs",
         "description": "Log files"
      }
   },
   "output_bed_liftover": {
      "name": "Bed liftover",
      "description": "Lifted over, uncompressed bed file",
      "type": "File",
      "copy": true
   },
   "output_stdout_log": {
      "name": "Standard out",
      "description": "Standard out",
      "type": "File",
      "copy": true,
      "groupId": "logs"
   },
   "output_stderr_log": {
      "name": "Standard err",
      "description": "Standard error",
      "type": "File",
      "copy": true,
      "groupId": "logs"
   },
   "output_bco": {
      "name": "Biocompute object",
      "description": "Biocompute object",
      "type": "File",
      "copy": true,
      "groupId": "logs"
   }
}