{
  "name": "sv-cov-plot",
  "author": "https://gitlab.com/kattom",
  "copyright": "Copyright 2019-2020 Intelliseq",
  "description": "Creates coverage plots for the SV",
  "changes": {"1.0.3": "First version"},
  "input_vcf": {
    "name": "vcf",
    "description": "VCF file with structural variant list",
    "type": "File",
    "index": 1,
    "extension": [
      ".vcf.gz"
    ]
   },
  "input_tbi": {
    "name": "tbi",
    "description": "VCF index (tabix)",
    "type": "File",
    "index": 2,
    "extension": [
      ".vcf.gz.tbi"
    ]
  },
  "input_bam": {
    "name": "bam",
    "description": "BAM file",
    "type": "File",
    "index": 3,
    "extension": [
      ".bam"
    ]
  },
  "input_bai": {
    "name": "bai",
    "description": "BAM index",
    "type": "File",
    "index": 4,
    "extension": [
      ".bai"
    ]
  },
  "input_sample_id": {
    "name": "sample_id",
    "description": "Sample id",
    "type": "String",
    "index": 5

  },
  "output_coverage_plots": {
    "name": "coverage_plots",
    "description": "Plots showing variants' coverage (in svg format, tar archive)",
    "type": "File"
  },
  "output_stdout_log": {
    "name": "stdout_log",
    "description": "Standard out",
    "type": "File"
  },
  "output_stderr_log": {
    "name": "stderr_log",
    "description": "Standard error",
    "type": "File"
  },
  "output_bco": {
    "name": "bco",
    "description": "BioCompute object",
    "type": "File"
  }
}
