{
  "author": "https://gitlab.com/moni.krzyz, https://gitlab.com/marysiaa",
  "changes": {
    "2.2.2": "update meta to new parser; remove unnecessary inputs in meta",
    "2.2.1": "remove long description in meta",
    "2.2.0": "Update pharmcat version and resources, cyrius and aldy versions, task versions fixed/updated since last version: vcf-uniq, bco-merge, gvcf-genotype-by-vcf",
    "2.1.3": "long description added to meta",
    "2.1.2": "Update meta - for outputs grouping",
    "2.1.1": "Update aldy version - fixes CYP1A2 genotyping",
    "2.1.0": "CPIC metadata in report",
    "2.0.3": "More genes in aldy tool",
    "2.0.2": "Update meta and optional bam - to have only pharmcat from gvcf to report and nothing esle.",
    "2.0.0": "code taken from pharmcat@1.5.0 and updated with new name and additional tasks: pgx-merge-genotypes and pgx-aldy, bams not optional",
    "1.5.0": "new gvcf-genotype-by-vcf and resources-pharmcat version",
    "1.4.3": "add price to meta",
    "1.4.2": "Astrolabe out of pgx_pharmcat",
    "1.4.1": "updated cyrius task version",
    "1.4.0": "added cyrius task",
    "1.3.6": "QUAL field fixed in pgx-pharmcat",
    "1.3.5": "workflow names in meta"
  },
  "copyright": "Copyright 2019 Intelliseq",
  "groupOutputs": {
    "logs": {
      "name": "Logs",
      "description": ""
    }
  },
  "input_gvcf_gz": {
    "index": 2,
    "required": true,
    "name": "gVCF file",
    "description": "Add sample information file in .g.vcf.gz format (bgzipped)",
    "type": "File",
    "constraints": {
      "extensions": [
        ".g.vcf.gz",
        ".gvcf.gz"
      ]
    }
  },
  "input_gvcf_gz_tbi": {
    "index": 3,
    "required": true,
    "name": "Index for gVCF file",
    "description": "Add tabix index of bgzipped gvcf file in .g.vcf.gz.tbi format",
    "type": "File",
    "constraints": {
      "extensions": [
        ".g.vcf.gz.tbi",
        ".gvcf.gz.tbi"
      ]
    }
  },
  "input_sample_id": {
    "index": 1,
    "name": "Sample id",
    "type": "String",
    "description": "Enter a sample name (or identifier)"
  },
  "variant1_beta": true,
  "variant1_description": "Identifies drug-related variants (according to the CPIC guidelines); generates clinical report which can be used to inform treatment decisions; for whole exome sequencing data (WES).",
  "variant1_name": "WES PGx PharmCAT report",
  "variant1_price": "70",
  "variant1_tag": "Clinical WES/WGS",
  "variant2_beta": true,
  "variant2_description": "Identifies drug-related variants (according to the CPIC guidelines); generates clinical report which can be used to inform treatment decisions; for whole genome sequencing data (WGS).",
  "variant2_name": "WGS PGx PharmCAT report",
  "variant2_price": "100",
  "variant2_tag": "Clinical WES/WGS",
  "output_bco": {
    "name": "Biocompute object",
    "type": "File",
    "copy": true,
    "description": "Biocompute object",
    "groupId": "logs"
  },
  "output_cnv_tsv": {
    "name": "cnv_tsv",
    "type": "File",
    "description": "TSV text file with genotyping data from astrolabe pgx tool, specialised for Copy Number Variants (CNV)",
    "copy": false
  },
  "output_cyrius_json": {
    "name": "cyrius_json",
    "type": "File",
    "description": "JSON text file with genotyping data from Cyrius pgx tool",
    "copy": false
  },
  "output_cyrius_tsv": {
    "name": "cyrius_tsv",
    "type": "File",
    "description": "TSV text file with genotyping data from Cyrius pgx tool",
    "copy": false
  },
  "output_genotyped_vcf_gz": {
    "type": "File",
    "copy": false,
    "name": "genotyped_vcf_gz",
    "description": "genotyped_vcf_gz"
  },
  "output_json": {
    "name": "genotype json",
    "type": "File",
    "description": "json with genotype data merged from the rest of the tools",
    "copy": false
  },
  "output_novel_file": {
    "type": "File",
    "copy": false,
    "name": "novel_file",
    "description": "Text file with genotyping data from astrolabe pgx tool, specialised for Copy Number Variants (CNV)"
  },
  "output_out_aldy": {
    "type": "File",
    "copy": false,
    "name": "out_aldy",
    "description": "out_aldy"
  },
  "output_pgx_matcher_html": {
    "name": "PGx matcher report",
    "type": "File",
    "description": "Report with allele matcher results",
    "copy": true
  },
  "output_pgx_matcher_json": {
    "name": "PGx matcher json",
    "type": "File",
    "description": "json with allele matcher results",
    "copy": false
  },
  "output_pgx_report_html": {
    "name": "PGx report",
    "type": "File",
    "description": "PharmCAT pharmacogenomics report in .html format",
    "copy": true
  },
  "output_pgx_report_json": {
    "name": "PGx report json\"",
    "type": "File",
    "description": "Data from pharmacogenomics report in .json format",
    "copy": false
  },
  "output_stderr_log": {
    "name": "Standard err",
    "type": "File",
    "copy": true,
    "description": "Standard error",
    "groupId": "logs"
  },
  "output_stdout_log": {
    "name": "Standard out",
    "type": "File",
    "copy": true,
    "description": "Standard out",
    "groupId": "logs"
  },
  "output_tsv": {
    "name": "genotype tsv",
    "type": "File",
    "description": "tsv with genotype data merged from the rest of the tools",
    "copy": false
  },
  "output_verbose_file": {
    "type": "File",
    "copy": false,
    "name": "verbose_file",
    "description": "Text file with genotyping data from astrolabe pgx tool, specialised for Copy Number Variants (CNV)"
  }
}