{
	"A" : "Ala",
	"C" : "Cys",
	"D" : "Asp",
	"E" : "Glu",
	"F" : "Phe",
	"G" : "Gly",
	"H" : "His",
	"I" : "Ile",
	"K" : "Lys",
	"L" : "Leu",
	"M" : "Met",
	"N" : "Asn",
	"P" : "Pro",
	"Q" : "Gln",
	"R" : "Arg",
	"S" : "Ser",
	"T" : "Thr",
	"W" : "Trp",
	"Y" : "Tyr",
	"V" : "Val"
}
