{
  "author": "https://gitlab.com/mateuszmarynowski",
  "copyright": "Copyright 2019-2020 Intelliseq",
  "description": "Annotate vcf with disease names derived from HPO",
  "changes": {
    "1.1.1": "ensembl-resources docker update",
    "1.0.1": "update hpo resources",
    "1.0.0": "no changes"
  },
  "input_vcf_gz": {
    "name": "vcf_gz",
    "description": "Input VCF file (bgzipped)",
    "type": "File",
    "extension": [
      ".vcf.gz"
    ]
  },
  "input_vcf_gz_tbi": {
    "name": "vcf_gz_tbi",
    "description": "Input vcf tabix index",
    "type": "File",
    "extension": [
      ".vcf.gz.tbi"
    ]
  },
  "output_annotated_with_hpo_vcf_gz": {
    "name": "Annotated vcf",
    "type": "File",
    "copy": "True",
    "description": "Vcf annotated with hpo"
  },
  "output_annotated_with_hpo_vcf_gz_tbi": {
    "name": "Annotated vcf tabix index",
    "type": "File",
    "copy": "True",
    "description": "Index for vcf annotated with hpo"
  },
  "output_stdout_log": {
    "name": "stdout_log",
    "description": "",
    "type": "File"
  },
  "output_stderr_log": {
    "name": "stderr_log",
    "description": "",
    "type": "File"
  },
  "output_bco": {
    "name": "bco",
    "description": "",
    "type": "File"
  }
}
