{
  "name": "Variant calling deepvariant",
  "author": "https://gitlab.com/olaf.tomaszewski",
  "copyright": "Copyright 2019 Intelliseq",
  "description": "Workflow for variant calling with deepvariant.",
  "changes": {
    "1.0.0": "init",
    "1.0.1": "add meta.json",
    "1.0.2": "docker in deepvariant update",
    "1.0.3": "bcftools in deepvariant",
    "1.0.4": "manage deepvariant task (mv and tabix issue)",
    "1.0.5": "more memory in deepvariant",
    "1.0.6": "update deepvariant task (add optional filtering for PGx)"
  },
  "input_bam": {
    "name": "Bam",
    "type": "File",
    "description": "Add bam file with marked duplicated reads"
  },
  "input_bai": {
    "name": "Bam index",
    "type": "File",
    "description": "Add index for the bam file"
  },
  "input_sample_id": {
    "name": "Sample id",
    "type": "String",
    "default": "no_id_provided",
    "description": "Enter a sample name (or identifier)"
  },
  "input_interval_list": {
    "name": "Inteval file",
    "type": "File",
    "constraints": {
      "extensions": [
        ".interval_list"
      ]
    },
    "description": "Add genomic intervals"
  },
  "input_kit": {
    "name": "Kit",
    "type": "String",
    "constraints": {
      "values": [
        "exome-v6",
        "exome-v7",
        "genome"
      ]
    },
    "description": "Choose comprehensive exome kit from exome-v6 for sure-select exome v6 or exome-v7 for sure-select exome v7. For WGS sample choose genome"
  },
  "output_gvcf_gz": {
    "name": "Gvcf gz",
    "type": "File",
    "description": "Merged bgzipped gVCF file"
  },
  "output_gvcf_gz_tbi": {
    "name": "Gvcf index",
    "type": "File",
    "description": "Merged gVCF file index"
  },
  "output_vcf_gz": {
    "name": "Vcf gz",
    "type": "File",
    "description": "Merged bgzipped VCF file"
  },
  "output_vcf_gz_tbi": {
    "name": "Vcf index",
    "type": "File",
    "description": "Merged VCF file index"
  },
  "output_stdout_log": {
    "name": "Standard out",
    "type": "File",
    "copy": "True",
    "description": "Standard out"
  },
  "output_stderr_log": {
    "name": "Standard err",
    "type": "File",
    "copy": "True",
    "description": "Standard error"
  },
  "output_bco": {
    "name": "Biocompute object",
    "type": "File",
    "copy": "True",
    "description": "Biocompute object"
  }
}