{
  "simulate_neat_workflow.simulate_neat.rng_seed_value": 2,
  "simulate_neat_workflow.simulate_neat.paired_end_fragment_lenghth_std": 35,
  "simulate_neat_workflow.simulate_neat.user_defined_targeted_regions_bed_file": "/Users/monika/workflows/resources/miscellaneous/simulated-samples/samples/ATAD3A-TRIO/bed/5MLN.bed",
  "simulate_neat_workflow.simulate_neat.no_jobs": 1,
  "simulate_neat_workflow.simulate_neat.output_golden_bam_file": true,
  "simulate_neat_workflow.simulate_neat.chromosome": "chr1",
  "simulate_neat_workflow.simulate_neat.predefined_targeted_regions": "whole-reference-sequence",
  "simulate_neat_workflow.simulate_neat.simulated_sample_name": "no-del",
  "simulate_neat_workflow.simulate_neat.average_coverage": 15,
  "simulate_neat_workflow.simulate_neat.ploidy": 1,
  "simulate_neat_workflow.simulate_neat.vcf_gz_with_variants_to_insert": "/Users/monika/workflows/resources/miscellaneous/simulated-samples/samples/ATAD3A-TRIO/vcf/random-variants.vcf.gz"
}
