{
  "name": "vcf-acmg-pp4",
  "author": "kattom",
  "copyright": "Copyright 2019-2020 Intelliseq",
  "description": "Annotates vcf with ACMG PP4",
  "changes": {
    "1.0.2": "update ubuntu and pysam",
    "1.0.1": "update pysam and cython",
    "1.0.0" : "first version"},
  "input_vcf": {
    "name": "vcf",
    "description": "Input VCF file",
    "type": "File",
    "extension": [
      ".vcf.gz"
    ]
  },
  "input_sample_id": {
    "name": "sample_id",
    "description": "Sample ID",
    "type": "String"
  },
  "output_annotated_acmg_vcf_gz": {
    "name": "annotated_acmg_vcf_gz",
    "description": "Output VCF",
    "type": "File"
    
  },
  "output_annotated_acmg_vcf_gz_tbi": {
    "name": "annotated_acmg_vcf_gz_tbi",
    "description": "Output VCF index",
    "type": "File"
  },
  "output_stdout_log": {
    "name": "stdout_log",
    "description": "",
    "type": "File"
    },
  "output_stderr_log": {
    "name": "stderr_log",
    "description": "",
    "type": "File"
  },
  "output_bco": {
    "name": "bco",
    "description": "",
    "type": "File"
  }
}
