{
  "simulate_neat_workflow.simulate_neat.average_mutation_rate": 0,
  "simulate_neat_workflow.simulate_neat.user_defined_targeted_regions_bed_file": "/path/to/easy-regions.bed",
  "simulate_neat_workflow.simulate_neat.ploidy": 1,
  "simulate_neat_workflow.simulate_neat.no_jobs": 1,
  "simulate_neat_workflow.simulate_neat.read_length": 150,
  "simulate_neat_workflow.simulate_neat.off_target_coverage_scalar": 0,
  "simulate_neat_workflow.simulate_neat.output_golden_vcf_file": true,
   "simulate_neat_workflow.simulate_neat.output_golden_bam_file": true,
  "simulate_neat_workflow.simulate_neat.reference_genome": "grch38-no-alt",
  "simulate_neat_workflow.simulate_neat.rng_seed_value": 3,
  "simulate_neat_workflow.simulate_neat.empirical_fragment_length_distribution": "wgs-50x-pcr-free-150gb",
  "simulate_neat_workflow.simulate_neat.simulate_paired_end_reads": true,
  "simulate_neat_workflow.simulate_neat.average_coverage": 15,
  "simulate_neat_workflow.simulate_neat.simulated_sample_name": "easy_regions_h2",
  "simulate_neat_workflow.simulate_neat.vcf_gz_with_variants_to_insert": "/path/to/variants.in.easy.regions.h2.vcf.gz",
  "simulate_neat_workflow.simulate_neat.empirical_GC_coverage_bias_distribution": "wgs-50x-pcr-free-150gb"

}

