{
  "simulate_neat_workflow.simulate_neat.user_defined_targeted_regions_bed_file": "/Users/monika/workflows/resources/miscellaneous/simulated-samples/samples/TAZ-FAMILY/2000-flanked/bed/2000-flanked.bed",
  "simulate_neat_workflow.simulate_neat.no_jobs": 1,
  "simulate_neat_workflow.simulate_neat.output_golden_bam_file": true,
  "simulate_neat_workflow.simulate_neat.chromosome": "chrX",
  "simulate_neat_workflow.simulate_neat.predefined_targeted_regions": "whole-reference-sequence",
  "simulate_neat_workflow.simulate_neat.simulated_sample_name": "TAZ-X",
  "simulate_neat_workflow.simulate_neat.vcf_gz_with_variants_to_insert": "/Users/monika/workflows/resources/miscellaneous/simulated-samples/samples/TAZ-FAMILY/2000-flanked/vcf/indeel-taz.vcf.gz",
  "simulate_neat_workflow.simulate_neat.average_coverage": 15,
  "simulate_neat_workflow.simulate_neat.rng_seed_value": 10,
  "simulate_neat_workflow.simulate_neat.ploidy": 1
}
