{
    "meta_test_variant_selector": {
        "url": "https://gitlab.com/intelliseq/workflows/raw/meta-test-variant-selector@1.0.8/src/main/wdl/tasks/meta-test/variant-selector/meta-test-variant-selector.wdl?variant=1"
    },
    "meta_test_linked_inputs": {
        "url": "https://gitlab.com/intelliseq/workflows/raw/meta-test-linked-inputs@1.0.8/src/main/wdl/tasks/meta-test/linked-inputs/meta-test-linked-inputs.wdl?variant=1"
    },
    "meta_test_group_outputs": {
        "url": "https://gitlab.com/intelliseq/workflows/raw/meta-test-group-outputs@1.0.1/src/main/wdl/tasks/meta-test/group-outputs/meta-test-group-outputs.wdl?variant=1"
    },
    "meta_test_gene_panel": {
        "url": "https://gitlab.com/intelliseq/workflows/raw/meta-test-gene-panel@1.0.1/src/main/wdl/tasks/meta-test/gene-panel/meta-test-gene-panel.wdl?variant=1"
    },
    "meta_test_all_inputs": {
        "url": "https://gitlab.com/intelliseq/workflows/raw/meta-test-all-inputs@1.0.0/src/main/wdl/tasks/meta-test/all-inputs/meta-test-all-inputs.wdl?variant=1"
    },
    "minimal_task": {
        "url": "https://gitlab.com/intelliseq/workflows/raw/minimal-task@2.1.1/src/main/wdl/tasks/minimal-task/minimal-task.wdl?variant=1"
    }
}