{
  "name": "json-prioritize-var-somatic",
  "author": "kattom (e-mail: <katarzyna.tomala@intelliseq.pl>)",
  "copyright": "Copyright 2019-2020 Intelliseq",
  "description": "Selects and sort somatic variants to report",
  "changes": {"1.0.1": "prepare also position list", "1.0.0": "First version"},
  "input_sample_id": {
    "name": "sample_id",
    "description": "no_id_provided",
    "type": "String"
  },
  "input_vcf_json": {
    "name": "vcf_json",
    "description": "Json file with somatic variants",
    "type": "File",
    "extension": [
      ".json"
    ]
  },
  "input_num_var": {
    "name": "num_var",
    "description": "Maximal number of variants to display in the report",
    "type": "Int"
  },
  "output_report_json": {
    "name": "report_json",
    "description": "Report-ready json",
    "type": "File"
  },
  "output_stdout_log": {
    "name": "stdout_log",
    "description": "",
    "type": "File"
  },
  "output_stderr_log": {
    "name": "stderr_log",
    "description": "",
    "type": "File"
  },
  "output_bco": {
    "name": "bco",
    "description": "",
    "type": "File"
  }
}
