{
  "name": "fq-arriba-fusions",
  "author": "kattom (e-mail: <katarzyna.tomala@intelliseq.pl>)",
  "copyright": "Copyright 2019-2020 Intelliseq",
  "description": "Aligns paired reads to the reference with STAR and finds possible fusions with arriba",
  "changes": {"1.0.0": "first version"},
  "input_sample_id": {
    "name": "sample_id",
    "description": "no_id_provided",
    "type": "String"
  },
  "input_fastqs_1": {
    "name": "fastqs_1",
    "description": "Array of Fastq files - first file from each pair",
    "type": "Array[File]"
  },
  "input_fastqs_2": {
    "name": "fastqs_2",
    "description": "Array of Fastq files - second file from each pair",
    "type": "Array[File]"
  },
  "input_num_thread": {
    "name": "num_thread",
    "description": "number of threads",
    "type": "Int"
  },
  "output_bam": {
    "name": "bam",
    "description": "STAR bam (with all reads), sorted by coordinates",
    "type": "File"
  },
  "output_bai": {
    "name": "bai",
    "description": "Index for the STAR bam",
    "type": "File"
  },
  "output_fusions_tsv": {
    "name": "fusions_tsv",
    "description": "TSV file with information on detected fusions",
    "type": "File"
  },
  "output_discarded_fusions_tsv": {
    "name": "discarded_fusions_tsv",
    "description": "File with information on rejected fusions",
    "type": "File"
  },
  "output_stdout_log": {
    "name": "stdout_log",
    "description": "",
    "type": "File"
  },
  "output_stderr_log": {
    "name": "stderr_log",
    "description": "",
    "type": "File"
  },
  "output_bco": {
    "name": "bco",
    "description": "",
    "type": "File"
  }
}
