<?xml version="1.0" encoding="UTF-8"?>
<svg width="1440px" height="424px" viewBox="0 0 1440 424" version="1.1" xmlns="http://www.w3.org/2000/svg" xmlns:xlink="http://www.w3.org/1999/xlink">
    <title>tlo</title>
    <defs>
        <polygon id="path-1" points="0 423.117 1440 423.117 1440 0.117 0 0.117"></polygon>
        <polygon id="path-3" points="0 670.648 1278 670.648 1278 0.648 0 0.648"></polygon>
    </defs>
    <g id="Page-1" stroke="none" stroke-width="1" fill="none" fill-rule="evenodd">
        <g id="Health_web_concept_Health_summary" transform="translate(0.000000, -80.000000)">
            <g id="tlo" transform="translate(0.000000, 80.000000)">
                <mask id="mask-2" fill="white">
                    <use xlink:href="#path-1"></use>
                </mask>
                <use id="Mask" fill="#BCEAF7" xlink:href="#path-1"></use>
                <g id="Group-96" mask="url(#mask-2)">
                    <g transform="translate(0.000000, -115.648000)">
                        <polygon id="Fill-1" fill="#BCEAF7" points="0 543 1513 543 1513 117 0 117"></polygon>
                        <polygon id="Fill-2" fill="#CDEFF7" points="918.670573 109.793026 849 453 1227 453 1017.98828 95"></polygon>
                        <g id="Group-95" stroke-width="1" fill="none" transform="translate(162.000000, 0.000000)">
                            <path d="M567.976669,288.648 L595.484312,290.510344 C626.082862,290.975731 634.582459,315.342137 634.582459,315.342137 L642,345.140449 L610.938053,389.838316 L629.946098,512.292464 L584.975864,490.408117 C547.42317,536.037556 499.670959,516.482539 499.670959,516.482539 L521.460981,426.621419 L511.261464,372.61103 L508.016091,383.785896 L470,388.442157 C470.521521,376.306932 471.858366,366.054841 473.68568,357.405215 C481.604837,319.925632 498.744165,312.549021 498.744165,312.549021 L539.078038,288.802329" id="Fill-4" fill="#76D2A7"></path>
                            <path d="M597.557007,210.648 C599.280291,217.192598 598.852038,224.085688 599.021917,230.856485 C599.192586,237.627283 600.099661,244.722593 604.020311,250.212926 C607.270926,254.764891 612.628832,258.437635 612.982022,264.042267 C613.371559,270.215194 607.274877,276.256239 609.80726,281.887247 L559,284.648 L597.557007,210.648 Z" id="Fill-6" fill="#263238"></path>
                            <path d="M526.703179,276.648 C521.343976,262.228691 515.923154,247.521505 515.095707,232.111326 C514.268259,216.701942 518.762404,200.19115 530.285051,190.281652 C535.673062,185.646988 542.261433,182.706982 548.972241,180.557446 C555.068465,178.604334 561.450374,177.244472 567.817879,177.756608 C585.632808,179.192018 600.450041,197.444388 598.617492,215.696758 C598.17656,220.087283 596.920985,224.35216 596.380023,228.729962 C594.561079,243.440329 600.858963,257.788861 607,271.209347 L526.703179,276.648 Z" id="Fill-20" fill="#263238"></path>
                            <path d="M560.130685,198.113597 L580.469173,197.648 C580.469173,197.648 601.731704,250.75001 567.52621,264.725108 L563.058411,263.948313 L571.224766,298.263262 L569.375885,306.648 L539.792197,288.94653 L537.943316,254.476383 C537.943316,254.476383 531.933857,250.905209 533.166709,239.726091 C534.399561,228.546173 539.330175,218.919844 539.330175,218.919844 L580.469173,197.648" id="Fill-22" fill="#F7A96D"></path>
                            <path d="M582,197.213942 C566.392613,213.788769 545.048631,225.014839 522.394685,228.563823 C521.816218,228.654681 521.188878,228.732897 520.674508,228.455584 C520.114468,228.152988 519.846867,227.513033 519.659386,226.910211 C517.816625,220.964953 520.031144,214.37579 523.884117,209.455249 C527.73709,204.535498 533.051454,200.965183 538.271275,197.480195 C542.701914,194.523762 547.346474,191.482792 552.651223,190.803334 C555.313612,190.462025 558.01526,190.738548 560.675246,191.099609 C567.645691,192.04453 574.535214,193.56857 581.246871,195.650398" id="Fill-24" fill="#263238"></path>
                            <polygon id="Fill-26" fill="#263238" points="542.344849 209.648 550 278.648 526 276.17301 527.033725 210.266548"></polygon>
                            <path d="M565.300207,356.977153 L611,397.03279 L607.306852,401.533235 L589.304463,387.581137 L600.844044,413.684676 L594.843783,418.635085 L580.071995,390.281723 L580.99468,418.635085 L575.455359,418.635085 L573.609187,392.531546 L565.300207,418.18592 L560.683571,418.18592 L565.300207,388.93103 L554.68331,377.679519 L485.902749,447.889975 C485.902749,447.889975 476.20934,452.39042 468.823847,446.990046 C468.823847,446.990046 460.514867,443.38953 463.746271,422.686365 L472.516192,370.479287 L510.829689,375.87966 L506.675601,390.281723 L550.528419,356.527188 C550.528419,356.527188 560.22263,354.276566 565.300207,356.977153" id="Fill-28" fill="#F7A96D"></path>
                            <path d="M514.842624,382.309559 L508.290738,387.408969 L512.598375,372.31001 L472.868724,366.648 L463.773776,421.381028 C460.42313,443.086332 469.039189,446.861272 469.039189,446.861272 C476.698258,452.523282 486.750196,447.804807 486.750196,447.804807 L522,411.425494 L514.842624,382.309559 Z" id="Fill-30" fill="#76D2A7"></path>
                            <path d="M567.069851,247.661054 C567.394603,247.457633 568.762292,249.691009 571.649222,250.226141 C574.535406,250.76836 576.771339,249.205493 576.979628,249.508143 C577.096837,249.631471 576.712361,250.235355 575.720189,250.815848 C574.751907,251.392798 573.113964,251.868391 571.347614,251.540934 C569.58425,251.209932 568.288229,250.186449 567.652164,249.311101 C566.996688,248.423705 566.908595,247.732641 567.069851,247.661054" id="Fill-32" fill="#E08D53"></path>
                            <path d="M592.97435,221.333286 C592.670858,222.023694 590.564782,221.362628 587.993086,221.364354 C585.42139,221.301354 583.26979,221.911503 583.016614,221.21419 C582.906398,220.882794 583.347261,220.256249 584.258536,219.678895 C585.162623,219.101541 586.549102,218.6312 588.091322,218.64846 C589.632742,218.66831 590.983282,219.170582 591.84504,219.769511 C592.713986,220.367577 593.108525,221.003616 592.97435,221.333286" id="Fill-34" fill="#263238"></path>
                            <path d="M569.992806,220.451392 C569.815127,221.208094 567.596166,220.99265 565.031583,221.540089 C562.456453,222.023071 560.422474,223.092342 560.043587,222.446011 C559.874021,222.136091 560.200172,221.413825 561.005002,220.640347 C561.802529,219.869518 563.099019,219.103104 564.639716,218.7923 C566.180413,218.485028 567.618072,218.70312 568.584354,219.120763 C569.55875,219.537523 570.067447,220.092908 569.992806,220.451392" id="Fill-36" fill="#263238"></path>
                            <mask id="mask-4" fill="white">
                                <use xlink:href="#path-3"></use>
                            </mask>
                            <g id="Clip-39"></g>
                            <polygon id="Fill-38" fill="#A4E0EA" mask="url(#mask-4)" points="560 553.648 1363 553.648 1363 425.648 560 425.648"></polygon>
                            <path d="M937.709815,95.648 C937.709815,95.648 908.363183,156.875468 947.33985,220.415699 C976.238208,267.527587 1026.1823,335.41 980.604539,442.648 C980.604539,442.648 1001.70558,404.52189 964.361854,340.450281 C927.018124,276.380315 880.746903,166.335953 937.709815,95.648" id="Fill-40" fill="#85CAF9" mask="url(#mask-4)"></path>
                            <path d="M887,369.430986 L937.852952,454.57448 C937.852952,454.57448 940.275884,456.113138 948,445.112437 L898.391212,368.648 L887,369.430986 Z" id="Fill-41" fill="#76D2A7" mask="url(#mask-4)"></path>
                            <path d="M951,0.648 C951,0.648 1056.03241,153.961475 1050.83158,239.833255 C1047.70546,291.425637 1009.9794,336.648 1009.9794,336.648 C1155.58273,247.687526 1032.1948,26.4927607 1032.1948,26.4927607 L951,0.648 Z" id="Fill-42" fill="#2EA3E5" mask="url(#mask-4)"></path>
                            <path d="M1081.44453,42.6774689 C1081.44453,42.6774689 888.693495,36.5838486 913.143925,199.648 C913.143925,199.648 921.183517,139.947741 984.555477,104.989516 C1061.77966,62.3912947 1172,80.224302 1172,80.224302" id="Fill-43" fill="#FFFFFF" mask="url(#mask-4)"></path>
                            <path d="M877,670.648 C877,670.648 793.584474,542.126287 798.759457,456.352776 C801.869716,404.819434 839.414277,359.648 839.414277,359.648 C687.674319,451.426553 808.777652,644.576267 808.777652,644.576267 L877,670.648 Z" id="Fill-44" fill="#2EA3E5" mask="url(#mask-4)"></path>
                            <polygon id="Fill-45" fill="#0079A3" mask="url(#mask-4)" points="786 440.689468 798.420382 468.648 799 455.20262 789.675931 439.648"></polygon>
                            <path d="M817,384.824511 L894.196052,483.648 C894.196052,483.648 896.292339,483.825358 907,476.847029 L825.399185,380.648 L817,384.824511 Z" id="Fill-46" fill="#76D2A7" mask="url(#mask-4)"></path>
                            <path d="M962,121.824443 L1050.16145,141.648 C1050.16145,141.648 1054.57115,138.877987 1049.73195,134.75256 C1032.68372,129.542634 974.624707,111.648 974.624707,111.648 L962,121.824443 Z" id="Fill-47" fill="#76D2A7" mask="url(#mask-4)"></path>
                            <polyline id="Fill-50" fill="#0079A3" mask="url(#mask-4)" points="1049 141.226185 1032.38329 149.648 1030 143.625879 1041.72204 139.648"></polyline>
                            <polyline id="Fill-51" fill="#0079A3" mask="url(#mask-4)" points="1062 181.648 1047.70366 200.648 1046 193.56706 1054.12831 183.06274"></polyline>
                            <polyline id="Fill-52" fill="#0079A3" mask="url(#mask-4)" points="1062 230.648 1050 249.648 1051.08026 240.22579 1053.71974 233.979405"></polyline>
                            <polygon id="Fill-53" fill="#2EA3E5" mask="url(#mask-4)" points="957 258.648 974.52462 265.057445 979 274.648 963.408095 269.323183"></polygon>
                            <path d="M955.390903,258.066484 L1057.12608,221.649944 C1057.12608,221.649944 1062.93768,221.41477 1063.94455,226.11825 C1063.94455,226.11825 1064.77192,228.551335 1060.03481,231.247783 C1055.29769,233.945841 1032.37605,240.952739 962.269482,269.648 C949.404811,268.087958 955.390903,258.066484 955.390903,258.066484" id="Fill-54" fill="#76D2A7" mask="url(#mask-4)"></path>
                            <polyline id="Fill-55" fill="#2EA3E5" mask="url(#mask-4)" points="934.165454 202.391559 944 214.648 939.169667 202.023388 932 189.648"></polyline>
                            <path d="M932.054316,189.654848 C954.025121,186.543718 1060.24349,172.648 1060.24349,172.648 C1060.24349,172.648 1066.91597,175.192345 1062.47532,180.562364 C1049.64047,184.749312 934.376501,202.648 934.376501,202.648 C934.376501,202.648 921.732219,197.825791 932.054316,189.654848" id="Fill-56" fill="#76D2A7" mask="url(#mask-4)"></path>
                            <path d="M871.121948,514.386563 C856.470587,501.851418 786.379683,440.599639 786.379683,440.599639 C786.379683,440.599639 784.206003,434.809032 790.26055,434.648 C800.36627,440.624979 878.264981,505.490574 878.264981,505.490574 C878.264981,505.490574 882.383619,516.462811 871.121948,514.386563" id="Fill-57" fill="#76D2A7" mask="url(#mask-4)"></path>
                            <polygon id="Fill-58" fill="#0079A3" mask="url(#mask-4)" points="779 498.454511 807 523.648 803.94134 509.209096 780.401816 495.648"></polygon>
                            <path d="M781.166803,487.648 L827,510.197 L809.486692,513.648 L779.850842,498.355139 C779.850842,498.355139 772.633095,492.297812 781.166803,487.648" id="Fill-59" fill="#76D2A7" mask="url(#mask-4)"></path>
                            <path d="M640.610953,537.107007 C731.45087,532.609489 860.758164,516.79414 926.488885,465.250114 C980.287362,423.061787 1000.31145,348.648 1000.31145,348.648 C1018.61305,574.452871 665.996935,591.648 665.996935,591.648 L501,533.865188 C501,533.865188 602.450016,537.335316 640.610953,537.107007" id="Fill-60" fill="#FFFFFF" mask="url(#mask-4)"></path>
                            <path d="M1074,254.648 C1074,254.648 1061.18862,296.516748 986.833414,305.68039 C930.822637,312.583893 845.473156,311.804079 778,421.648 C778,421.648 797.842035,381.973305 872.803219,371.449119 C947.764402,360.923281 1038.17718,358.638359 1074,254.648" id="Fill-61" fill="#71BDFA" mask="url(#mask-4)"></path>
                            <polygon id="Fill-62" fill="#1FC96F" mask="url(#mask-4)" points="564.202347 326.648 536 292.919423 546.417633 290.648 570 305.633115"></polygon>
                            <polygon id="Fill-63" fill="#1FC96F" mask="url(#mask-4)" points="569.322398 306.687263 581 312.648 571.064295 288.779957 569 288.648"></polygon>
                            <polygon id="Fill-64" fill="#E08D53" mask="url(#mask-4)" points="563.736388 263.882987 557 260.648 566 273.648"></polygon>
                            <path d="M586.563691,229.645146 C585.186117,229.710409 584.037154,228.648629 584.00088,227.2689 C583.964606,225.889171 585.054517,224.716946 586.432935,224.650846 C587.813884,224.585583 588.96369,225.65071 588.999121,227.030439 C589.035395,228.409331 587.94464,229.579883 586.563691,229.645146 Z" id="Fill-65" fill="#263238" mask="url(#mask-4)"></path>
                            <path d="M565.564554,229.645073 C564.186126,229.711193 563.037154,228.649088 563.000879,227.2681 C562.964605,225.888786 564.055369,224.717038 565.433798,224.650918 C566.813914,224.584798 567.962886,225.650251 567.99916,227.029566 C568.034591,228.409717 566.94467,229.57979 565.564554,229.645073 Z" id="Fill-66" fill="#263238" mask="url(#mask-4)"></path>
                            <path d="M573.249297,222.383556 C574.872274,227.542588 576.495251,232.701621 578.119029,237.860653 L578.816765,240.078741 C579.009824,239.826341 579.202883,239.573142 579.395942,239.320741 L572.610841,239.320741 C572.248755,239.320741 571.891476,239.707329 572.030863,240.078741 C572.553163,241.466944 573.075464,242.854347 573.597765,244.242549 C573.866125,244.958216 575.028484,244.647508 574.756118,243.923854 C574.233818,242.535652 573.712318,241.148248 573.190018,239.760046 C572.996959,240.013245 572.8039,240.266444 572.610841,240.518845 L579.395942,240.518845 C579.77485,240.518845 580.092876,240.134653 579.975118,239.760046 C578.352142,234.601812 576.729165,229.44278 575.106188,224.283747 L574.407651,222.065659 C574.176941,221.33242 573.016986,221.644725 573.249297,222.383556" id="Fill-67" fill="#E08D53" mask="url(#mask-4)"></path>
                            <path d="M550.029705,228.449809 C549.58727,222.390957 554.13934,217.120974 560.198194,216.677705 C566.256212,216.23527 571.52703,220.787339 571.9703,226.846191 C572.412735,232.905043 567.85983,238.175026 561.801811,238.618295 C555.742958,239.06073 550.47214,234.508661 550.029705,228.449809 Z" id="Stroke-68" stroke="#FFFFFF" stroke-width="1.741" stroke-linecap="round" stroke-linejoin="round" mask="url(#mask-4)"></path>
                            <path d="M576.029808,226.449809 C575.58654,220.390957 580.139424,215.120974 586.198249,214.677705 C592.256239,214.23527 597.527033,218.787339 597.9703,224.846191 C598.412733,230.905043 593.859849,236.175026 587.801859,236.618295 C581.743034,237.06073 576.47224,232.508661 576.029808,226.449809 Z" id="Stroke-69" stroke="#FFFFFF" stroke-width="1.741" stroke-linecap="round" stroke-linejoin="round" mask="url(#mask-4)"></path>
                            <line x1="572" y1="227.358" x2="576" y2="226.938" id="Stroke-70" stroke="#FFFFFF" stroke-width="1.741" stroke-linecap="round" stroke-linejoin="round" mask="url(#mask-4)"></line>
                            <path d="M532.734867,229.645807 C532.392046,229.674332 532.07662,229.421804 532.011656,229.050982 C531.942779,228.654992 532.186197,228.272425 532.55563,228.198596 L550.192887,224.65985 C550.561536,224.588538 550.919228,224.8461 550.988105,225.243768 C551.057765,225.639759 550.814347,226.022326 550.444132,226.096154 L532.806875,229.6349 C532.783394,229.639934 532.75913,229.64329 532.734867,229.645807" id="Fill-71" fill="#FFFFFF" mask="url(#mask-4)"></path>
                            <path d="M517.287139,209.596169 C513.167099,214.2191 509.328861,219.69657 509.268988,225.873715 C509.191553,233.793293 515.352053,240.904395 514.779671,248.803325 C514.389301,254.187082 510.902315,258.859252 506.991431,262.599848 C505.598393,263.932484 504.108761,265.223823 503.164369,266.900341 C500.614591,271.426382 502.751647,277.030921 504.813662,281.79601 C506.874879,286.560306 508.766856,292.339565 505.86343,296.648 L553,293.759562 L538.782232,201.648 L517.287139,209.596169 Z" id="Fill-72" fill="#263238" mask="url(#mask-4)"></path>
                            <polygon id="Fill-73" fill="#1FC96F" mask="url(#mask-4)" points="514.007009 380.648 522 410.596399 518.785826 413.648 505 388.887563"></polygon>
                            <path d="M721,302.543544 C721,302.543544 718.314054,300.141987 714.004975,299.656445 C712.485274,299.483971 706.595412,301.999965 701.378259,302.946528 C696.161106,303.893909 701.154294,324.648 701.154294,324.648 L709.025631,318.10053 L721,302.543544 Z" id="Fill-76" fill="#F7A96D" mask="url(#mask-4)"></path>
                            <path d="M672,328.990457 C672,328.990457 681.556506,311.768307 682.405603,310.312409 C684.761035,306.27303 692.604283,298.634944 694.83683,297.001342 C697.127252,295.326303 704.364002,293.669591 707.863456,292.266287 C711.363702,290.862983 715.934239,289.808712 715.996078,291.576987 C716.057125,293.345261 715.432392,295.236255 712.218349,297.8548 C709.005099,300.473344 703.615591,301.200098 702.404974,302.985107 C701.193563,304.770116 711.025173,320.102068 706.575936,323.797993 C702.126698,327.495512 695.582069,327.362433 692.165067,328.817534 C688.748066,330.271838 684.541427,340.648 684.541427,340.648 L672,328.990457 Z" id="Fill-77" fill="#F7A96D" mask="url(#mask-4)"></path>
                            <path d="M692.134549,333.964169 L697.905245,336.485661 C698.867975,336.907242 699.994816,336.479261 700.422967,335.531302 L722.835493,285.811845 C723.262832,284.863086 722.828994,283.752734 721.865451,283.331952 L716.095568,280.810461 C715.132025,280.388879 714.004371,280.81606 713.577033,281.764819 L691.164507,331.484276 C690.737168,332.433035 691.171006,333.543387 692.134549,333.964169" id="Fill-78" fill="#209BD1" mask="url(#mask-4)"></path>
                            <path d="M703.457296,244.589185 C697.073298,258.971811 703.557121,275.80691 717.940683,282.190848 C732.323446,288.574785 749.158705,282.090225 755.542704,267.707599 C761.926702,253.324175 755.442879,236.489075 741.059317,230.105138 C726.676554,223.721201 709.841295,230.20576 703.457296,244.589185 Z" id="Stroke-79" stroke="#2EA3E5" stroke-width="7" mask="url(#mask-4)"></path>
                            <path d="M748.023232,265.648 C752.691547,255.694382 748.808905,243.641762 739.351109,238.728316 C736.341776,237.165093 733.130499,236.513015 730,236.671021" id="Stroke-80" stroke="#E7F5F7" stroke-width="4" mask="url(#mask-4)"></path>
                            <path d="M705.841434,319.660297 C705.841434,319.660297 698.445216,320.213873 696.947276,321.248508 C695.449337,322.282425 695.803656,323.561179 697.477247,324.263381 C699.151592,324.965583 705.881389,324.527604 706.712154,324.340925 C707.543672,324.152809 709.255711,323.515945 708.967733,321.498371 C708.830528,320.536254 707.362743,319.524596 705.841434,319.660297" id="Fill-81" fill="#F7A96D" mask="url(#mask-4)"></path>
                            <path d="M709.116221,313.665227 C709.116221,313.665227 700.010605,314.328616 698.16663,315.569984 C696.321862,316.810616 696.758259,318.343551 698.818845,319.186592 C700.880224,320.028896 709.165414,319.503929 710.18817,319.278627 C711.211718,319.053325 713.293727,318.219856 712.96524,315.86965 C712.775606,314.511949 710.988759,313.502509 709.116221,313.665227" id="Fill-82" fill="#F7A96D" mask="url(#mask-4)"></path>
                            <path d="M713.120061,308.66289 C713.120061,308.66289 704.012164,309.326538 702.166772,310.568391 C700.321381,311.809507 700.758719,313.343042 702.819207,314.186412 C704.881283,315.029045 713.169272,314.503872 714.193166,314.278483 C715.216267,314.053829 717.270405,313.203094 716.97038,310.868174 C716.821955,309.711763 714.994026,308.499372 713.120061,308.66289" id="Fill-83" fill="#F7A96D" mask="url(#mask-4)"></path>
                            <path d="M717.132164,303.662945 C717.132164,303.662945 708.015361,304.326586 706.168165,305.568428 C704.32097,306.808797 704.757941,308.343053 706.821238,309.186416 C708.88533,310.029042 717.181422,309.503874 718.205523,309.278486 C719.230419,309.053098 721.182487,308.345263 720.986247,305.868209 C720.894086,304.706652 719.007166,303.499428 717.132164,303.662945" id="Fill-84" fill="#F7A96D" mask="url(#mask-4)"></path>
                            <path d="M703,302.648 C703,302.648 715.801294,297.521408 715.996039,292.871709 C716.182005,288.460456 709.771381,291.793024 706.876544,292.857921" id="Fill-85" fill="#F7A96D" mask="url(#mask-4)"></path>
                            <path d="M708.276056,309.482 C710.4464,309.506 712.616744,309.53 714.786326,309.553 C715.099532,309.557 715.411976,309.56 715.723658,309.564 C716.091733,309.568 716.092495,308.818 715.723658,308.814 C713.554076,308.791 711.383732,308.766 709.212626,308.743 C708.900944,308.739 708.5885,308.736 708.276056,308.732 C707.907981,308.728 707.907981,309.478 708.276056,309.482" id="Fill-86" fill="#E08D53" mask="url(#mask-4)"></path>
                            <line x1="705" y1="314.148" x2="712" y2="314.148" id="Stroke-87" stroke="#E08D53" stroke-width="0.5" stroke-linecap="round" mask="url(#mask-4)"></line>
                            <line x1="701" y1="320.107" x2="708" y2="320.189" id="Stroke-88" stroke="#E08D53" stroke-width="0.5" stroke-linecap="round" mask="url(#mask-4)"></line>
                            <polyline id="Fill-89" fill="#F7A96D" mask="url(#mask-4)" points="708 324.648 704 327.648 704.933088 324.989958 707.910784 324.648"></polyline>
                            <path d="M689.279338,314.605394 C692.857511,315.030056 695.627407,312.214116 696.530362,309.105228 C696.775271,308.262717 696.879337,307.408851 696.957583,306.540603 C697.020179,305.851001 697.463832,305.684467 698.041285,305.461916 C698.410604,305.319605 698.779924,305.176538 699.148461,305.032713 C700.699289,304.427134 702.246206,303.808687 703.803294,303.216734 C704.150705,303.084264 703.99969,302.535458 703.647585,302.668686 C702.12336,303.248527 700.609307,303.853349 699.091341,304.446059 C698.456769,304.694346 697.783074,304.902513 697.168846,305.192434 C696.4662,305.524745 696.412211,306.07128 696.355091,306.768452 C696.060888,310.389811 693.609452,314.550892 689.279338,314.037664 C688.905324,313.993003 688.908454,314.56149 689.279338,314.605394" id="Fill-90" fill="#E08D53" mask="url(#mask-4)"></path>
                            <path d="M664.240759,324.648 L605,394.78283 L637.234166,421.648 C637.234166,421.648 662.167632,409.976082 689,341.471822 L664.240759,324.648 Z" id="Fill-91" fill="#76D2A7" mask="url(#mask-4)"></path>
                            <polygon id="Fill-92" fill="#1FC96F" mask="url(#mask-4)" points="664.379602 323.648 658 331.745975 689.097603 344.648 690 343.14361"></polygon>
                            <polygon id="Fill-93" fill="#FFFFFF" mask="url(#mask-4)" points="704.153253 424.720255 543.667953 425.648 533 418.22285 586.340561 415.90269 631.331251 341.648 751 342.576542"></polygon>
                            <path d="M676.99961,392.648 C672.581973,392.648 669,389.066027 669,384.64761 C669,380.229194 672.581973,376.648 676.99961,376.648 C681.418027,376.648 685,380.229194 685,384.64761 C685,389.066027 681.418027,392.648 676.99961,392.648 Z" id="Fill-94" fill="#85CAF9" mask="url(#mask-4)"></path>
                        </g>
                    </g>
                </g>
            </g>
        </g>
    </g>
</svg>