{
  "name": "fq-to-ubam",
  "author": {},
  "copyright": "Copyright 2019-2020 Intelliseq",
  "description": "Changes fastq files to unsorted bam",
  "changes": {"1.0.0": "First version"},
  "input_sample_id": {
    "name": "sample_id",
    "description": "no_id_provided",
    "type": "String"
  },
  "input_fastq_1": {
    "name": "fastq_1",
    "description": "First fastq file",
    "type": "File",
    "extension": [
      ".fq.gz",
      ".fastq.gz"
    ]
  },
  "input_fastq_2": {
    "name": "fastq_2",
    "description": "Second fastq file (for paired-read sequencing only)",
    "type": "File"
  },
  "output_unmapped_bam": {
    "name": "unmapped_bam",
    "description": "Unmapped bam",
    "type": "File"
  },
  "output_stdout_log": {
    "name": "stdout_log",
    "description": "",
    "type": "File"
  },
  "output_stderr_log": {
    "name": "stderr_log",
    "description": "",
    "type": "File"
  },
  "output_bco": {
    "name": "bco",
    "description": "",
    "type": "File"
  }
}
