<?xml version="1.0" encoding="utf-8"?>
<!-- Generator: Adobe Illustrator 25.0.0, SVG Export Plug-In . SVG Version: 6.00 Build 0)  -->
<svg version="1.1" id="Layer_1" xmlns="http://www.w3.org/2000/svg" xmlns:xlink="http://www.w3.org/1999/xlink" x="0px" y="0px"
	 width="16px" height="16px" viewBox="0 0 16 16" style="enable-background:new 0 0 16 16;" xml:space="preserve">
<style type="text/css">
	.st0{fill:#007AE1;}
</style>
<path class="st0" d="M1.2,8c0-0.3,0.1-0.5,0.4-0.7l12.3-5.9c0.2-0.1,0.5-0.1,0.7,0.1C14.9,1.7,15,2,14.9,2.2l-2.1,10.6
	c0,0.2-0.2,0.4-0.4,0.5c-0.2,0.1-0.4,0.1-0.6,0l-5.7-2.7L10.6,6c0.2-0.2,0.2-0.5,0-0.7c-0.2-0.2-0.5-0.2-0.7,0c0,0,0,0,0,0l-4.7,4.8
	c0,0-0.1,0-0.1,0L1.6,8.6C1.4,8.5,1.2,8.3,1.2,8z M5.9,14.6c0,0-0.1,0-0.1,0c0,0-0.1,0-0.1-0.1v-3l2,1L5.9,14.6z M5.4,15.7
	c0.4,0.2,0.9,0,1.2-0.3L8.7,13l2.7,1.3c0.5,0.2,1,0.2,1.5,0c0.5-0.2,0.8-0.7,0.9-1.2l2.1-10.6c0.1-0.6-0.1-1.3-0.6-1.7
	c-0.5-0.4-1.2-0.5-1.8-0.2L1.2,6.4c-0.6,0.3-1,0.9-1,1.6c0,0.7,0.4,1.3,1.1,1.6l3.4,1.5v3.5C4.7,15.1,5,15.5,5.4,15.7z"/>
</svg>
